%YAML 1.1
%TAG !u! tag:unity3d.com,2011:
--- !u!1 &7172867053850822564
GameObject:
  m_ObjectHideFlags: 0
  m_CorrespondingSourceObject: {fileID: 0}
  m_PrefabInstance: {fileID: 0}
  m_PrefabAsset: {fileID: 0}
  serializedVersion: 6
  m_Component:
  - component: {fileID: 7172867053850822554}
  - component: {fileID: 7172867053850822565}
  - component: {fileID: 7172867053850822555}
  m_Layer: 0
  m_Name: Spawner
  m_TagString: Untagged
  m_Icon: {fileID: 0}
  m_NavMeshLayer: 0
  m_StaticEditorFlags: 0
  m_IsActive: 1
--- !u!4 &7172867053850822554
Transform:
  m_ObjectHideFlags: 0
  m_CorrespondingSourceObject: {fileID: 0}
  m_PrefabInstance: {fileID: 0}
  m_PrefabAsset: {fileID: 0}
  m_GameObject: {fileID: 7172867053850822564}
  m_LocalRotation: {x: 0, y: 0, z: 0, w: 1}
  m_LocalPosition: {x: 3.275802, y: 5.9271755, z: -4.135649}
  m_LocalScale: {x: 1, y: 1, z: 1}
  m_Children: []
  m_Father: {fileID: 0}
  m_RootOrder: 0
  m_LocalEulerAnglesHint: {x: 0, y: 0, z: 0}
--- !u!114 &7172867053850822565
MonoBehaviour:
  m_ObjectHideFlags: 0
  m_CorrespondingSourceObject: {fileID: 0}
  m_PrefabInstance: {fileID: 0}
  m_PrefabAsset: {fileID: 0}
  m_GameObject: {fileID: 7172867053850822564}
  m_Enabled: 1
  m_EditorHideFlags: 0
  m_Script: {fileID: 11500000, guid: 6da015d4d0bb04045a51d69b9a9f3236, type: 3}
  m_Name: 
  m_EditorClassIdentifier: 
  threats:
  - {fileID: 1315528365081068896, guid: 1493b9dfee5b6a0478b8aa6a08537cfa, type: 3}
  - {fileID: 3800132318895701299, guid: 84f37b7fa21c5ea4c979c812b61f1845, type: 3}
  - {fileID: 2638858081628322372, guid: 7d7bfee5d0424ea4cb5ca2cd675cc687, type: 3}
  - {fileID: 7816961148394197169, guid: 47704b9075ee04244acfdd0425aa0ba4, type: 3}
  - {fileID: 398682319306907608, guid: eedc508b784ec164f95656a8aa30af8d, type: 3}
  - {fileID: 3427546856883382465, guid: c994937934bec764f9387d285d142fb2, type: 3}
  gameController: {fileID: 0}
--- !u!114 &7172867053850822555
MonoBehaviour:
  m_ObjectHideFlags: 0
  m_CorrespondingSourceObject: {fileID: 0}
  m_PrefabInstance: {fileID: 0}
  m_PrefabAsset: {fileID: 0}
  m_GameObject: {fileID: 7172867053850822564}
  m_Enabled: 1
  m_EditorHideFlags: 0
  m_Script: {fileID: 11500000, guid: 2c8984c5bda332a44bfa9db8a3483016, type: 3}
  m_Name: 
  m_EditorClassIdentifier: 
